<?xml version="1.0" encoding="UTF-8" standalone="no"?>
<svg xmlns:dc="http://purl.org/dc/elements/1.1/" xmlns:cc="http://creativecommons.org/ns#" xmlns:rdf="http://www.w3.org/1999/02/22-rdf-syntax-ns#" xmlns:svg="http://www.w3.org/2000/svg" xmlns="http://www.w3.org/2000/svg" version="1.1" id="svg2" viewBox="0 0 382.67717 170.07874" height="48mm" width="108mm">
  <title id="title4151">??????</title>
  <defs id="defs4"/>
  <metadata id="metadata7">
    <rdf:RDF>
      <cc:Work rdf:about="">
        <dc:format>image/svg+xml</dc:format>
        <dc:type rdf:resource="http://purl.org/dc/dcmitype/StillImage"/>
        <dc:title>??????</dc:title>
      </cc:Work>
    </rdf:RDF>
  </metadata>
  <g transform="translate(0,-882.28357)" id="layer1">
    <g transform="matrix(3.4402358,0,0,3.4402358,-578.73528,-732.88184)" id="text4136" style="font-style:normal;font-weight:normal;font-size:40px;line-height:125%;font-family:sans-serif;letter-spacing:0px;word-spacing:0px;fill:#000000;fill-opacity:1;stroke:none;stroke-width:1px;stroke-linecap:butt;stroke-linejoin:miter;stroke-opacity:1">
      <path id="path4141" style="font-style:normal;font-variant:normal;font-weight:normal;font-stretch:normal;font-family:'Noto Sans Telugu';-inkscape-font-specification:'Noto Sans Telugu'" d="m 173.16951,503.2742 q 0.83984,2.51953 3.67187,3.86719 2.85157,1.32812 7.30469,1.32812 4.86328,0 7.69531,-1.5625 2.83204,-1.58203 3.47657,-4.58984 -1.73828,1.62109 -4.21875,1.62109 -2.36328,0 -3.82813,-1.32812 -1.44531,-1.34766 -1.44531,-3.57422 0,-1.67969 1.07422,-2.94922 1.07422,-1.28906 2.89062,-1.64062 -1.5625,-0.41016 -4.04297,-0.41016 l 0.89844,-2.92969 q 5.82031,0.82031 8.73047,3.39844 2.92969,2.55859 2.92969,6.875 0,4.74609 -3.61328,7.5 -3.59375,2.73437 -10.33203,2.73437 -6.83594,0 -10.58594,-2.69531 -3.75,-2.71484 -3.75,-7.30469 0,-3.49609 2.05078,-5.72265 2.05078,-2.2461 5.25391,-2.2461 2.48046,0 3.90625,1.34766 1.44531,1.34766 1.44531,3.57422 0,2.48047 -1.69922,3.92578 -1.67969,1.44531 -4.62891,1.44531 -1.83593,0 -3.18359,-0.66406 z m -0.19531,-2.92969 q 1.28906,0.80078 2.89062,0.80078 3.63281,0 3.63281,-2.55859 0,-1.03516 -0.625,-1.5625 -0.625,-0.54687 -1.73828,-0.54687 -1.60156,0 -2.71484,1.01562 -1.09375,1.01563 -1.44531,2.85156 z m 22.16797,-1.64062 q -0.54688,-1.05469 -1.46485,-1.64063 -0.91797,-0.58593 -2.03125,-0.58593 -1.17187,0 -1.91406,0.625 -0.74219,0.60546 -0.74219,1.71875 0,1.07421 0.6836,1.69921 0.70312,0.625 1.95312,0.625 1.26953,0 2.20703,-0.64453 0.9375,-0.64453 1.3086,-1.79687 z m -10.97657,13.3789 0,0 z m 15.56641,0 0,0 z m -15.54688,-17.94921 0,0 z m -10.76171,-7.32422 0,-3.00782 15.54687,0 q 2.36328,0 3.59375,0.3125 1.25,0.3125 2.08984,0.9961 0.83985,0.68359 1.25,1.62109 0.42969,0.91797 0.42969,2.26563 0,1.17187 -0.46875,2.24609 -0.46875,1.05469 -1.38672,1.69922 -0.91797,0.64453 -2.16797,0.91797 -1.23046,0.27344 -3.33984,0.27344 l -4.02344,0 0,-3.00782 4.49219,0 q 1.54297,0 2.22656,-0.21484 0.70313,-0.23438 1.03516,-0.70313 0.35156,-0.48828 0.35156,-1.1914 0,-0.82031 -0.41015,-1.34766 -0.39063,-0.52734 -1.07422,-0.68359 -0.66407,-0.17578 -1.99219,-0.17578 l -16.15234,0 z"/>
      <path id="path4143" style="font-style:normal;font-variant:normal;font-weight:normal;font-stretch:normal;font-family:'Noto Sans Telugu';-inkscape-font-specification:'Noto Sans Telugu'" d="m 204.32185,500.79373 q 0.17578,3.55469 2.71485,5.625 2.55859,2.05078 6.85547,2.05078 4.47265,0 6.97265,-1.875 2.51953,-1.89453 2.51953,-5.29297 0,-2.40234 -1.36718,-4.21875 -1.34766,-1.8164 -3.98438,-2.89062 l 1.60156,-3.06641 q 3.47657,1.52344 5.27344,4.1211 1.81641,2.57812 1.81641,5.85937 0,4.92188 -3.30078,7.71485 -3.30079,2.79296 -9.41407,2.79296 -5.99609,0 -9.41406,-3.04687 -3.41797,-3.06641 -3.41797,-8.20313 0,-4.23828 2.10938,-6.73828 2.1289,-2.5 5.46875,-2.5 2.40234,0 3.84765,1.38672 1.44532,1.36719 1.44532,3.67188 0,2.59765 -1.6211,4.0625 -1.62109,1.46484 -4.60937,1.46484 -1.81641,0 -3.4961,-0.91797 z m 0.15625,-2.85156 q 1.38672,0.95703 3.14453,0.95703 1.6211,0 2.44141,-0.66406 0.82031,-0.66406 0.82031,-1.89453 0,-1.09375 -0.64453,-1.73828 -0.625,-0.64454 -1.67969,-0.64454 -1.52343,0 -2.61718,1.03516 -1.07422,1.01563 -1.46485,2.94922 z m 9.47266,14.14062 0,0 z m 14.17969,0 0,0 z m -11.73828,-17.94921 0,0 z"/>
      <path id="path4145" style="font-style:normal;font-variant:normal;font-weight:normal;font-stretch:normal;font-family:'Noto Sans Telugu';-inkscape-font-specification:'Noto Sans Telugu'" d="m 224.49763,506.69217 1.60157,-2.57813 q 1.66015,2.22657 3.32031,3.30079 1.67969,1.05468 3.61328,1.05468 2.05078,0 3.125,-1.28906 1.07422,-1.30859 1.07422,-3.76953 0,-2.96875 -1.71875,-5.25391 -1.69922,-2.28515 -5.29297,-3.94531 l 1.48438,-3.08594 q 4.12109,1.79688 6.48437,5 2.36328,3.20313 2.36328,7.07032 0,4.02343 -2.01172,6.23046 -2.01172,2.1875 -5.76172,2.1875 -2.42187,0 -4.49218,-1.23046 -2.05078,-1.23047 -3.78907,-3.69141 z"/>
      <path id="path4147" style="font-style:normal;font-variant:normal;font-weight:normal;font-stretch:normal;font-family:'Noto Sans Telugu';-inkscape-font-specification:'Noto Sans Telugu'" d="m 257.21248,509.95389 q 1.93359,-2.73438 2.51953,-4.60938 0.60547,-1.89453 0.60547,-3.98437 0,-3.51563 -1.73828,-5.3711 -1.73828,-1.85546 -5.09766,-1.85546 -3.06641,0 -4.84375,1.91406 -1.77734,1.91406 -1.77734,5.27344 0,2.30468 0.72265,4.35546 0.74219,2.05079 2.40235,4.27735 l -3.33985,1.46484 q -3.10547,-4.84375 -3.10547,-10.09765 0,-2.91016 1.25,-5.27344 1.25,-2.38281 3.55469,-3.65235 2.32422,-1.26953 5.3711,-1.26953 4.66796,0 7.28515,2.61719 2.63672,2.59766 2.63672,7.14844 0,2.79297 -0.68359,5.2539 -0.6836,2.46094 -2.44141,5.27344 l -3.32031,-1.46484 z m -3.61328,2.1289 0,0 z m 11.66015,0 0,0 z m -11.77734,-0.97656 0,0 z m -3.32031,-23.65234 q 0.39062,1.5039 0.76172,2.28515 0.37109,0.78125 0.78125,1.09375 0.42968,0.29297 1.05468,0.29297 0.78125,0 1.48438,-0.48828 0.70312,-0.48828 1.99219,-2.14844 l 1.23046,-1.60156 q 2.07032,-2.71484 3.76954,-3.73047 1.69921,-1.03515 4.21875,-1.05468 l 0.21484,3.08593 q -1.38672,0.0781 -2.24609,0.41016 -0.85938,0.33203 -1.60157,0.97656 -0.72265,0.625 -2.01172,2.28516 l -0.91796,1.1914 q -1.64063,2.12891 -3.10547,3.10547 -1.44532,0.97657 -3.26172,0.97657 -2.28516,0 -3.63281,-1.46485 -1.32813,-1.48437 -2.05079,-4.14062 l 3.32032,-1.07422 z m 5.42968,-11.11328 0,0 z"/>
      <path id="path4149" style="font-style:normal;font-variant:normal;font-weight:normal;font-stretch:normal;font-family:'Noto Sans Telugu';-inkscape-font-specification:'Noto Sans Telugu'" d="m 261.60701,506.69217 1.60156,-2.57813 q 1.66016,2.22657 3.32031,3.30079 1.67969,1.05468 3.61329,1.05468 2.05078,0 3.125,-1.28906 1.07421,-1.30859 1.07421,-3.76953 0,-2.96875 -1.71875,-5.25391 -1.69921,-2.28515 -5.29296,-3.94531 l 1.48437,-3.08594 q 4.12109,1.79688 6.48438,5 2.36328,3.20313 2.36328,7.07032 0,4.02343 -2.01172,6.23046 -2.01172,2.1875 -5.76172,2.1875 -2.42188,0 -4.49219,-1.23046 -2.05078,-1.23047 -3.78906,-3.69141 z"/>
    </g>
  </g>
</svg>